{
  "meta": {
    "name": "RespectFace Original Tachi-Extensions",
    "website": "https://respectface.codeberg.page/tachi-prepurge-extensions",
    "signingKeyFingerprint": "7ce04da7773d41b489f4693a366c36bcd0a11fc39b547168553c285bd7348e23"
  }
}
